{
  "coverage": {
    "CR": {
      "panel1": 1,
      "panel2": 2,
      "panel3": 3,
      "panel4": 4,
      "panel5": 5,
      "panel6": 6,
      "panel7": 7,
      "panel8": 8
    },
    "CA": {
      "panel1": 1,
      "panel2": 2,
      "panel3": 3,
      "panel4": 4,
      "panel5": 5,
      "panel6": 6,
      "panel7": 7,
      "panel8": 8
    },
    "AR": {
      "panel1": 1,
      "panel2": 2,
      "panel3": 3,
      "panel4": 4,
      "panel5": 5,
      "panel6": 6,
      "panel7": 7,
      "panel8": 8
    }
  }
}
