{
  "mapping": {
    "panel1": [
      {
        "id": 1,
        "index": 1089,
        "topic": "considered_fraudulent",
        "count": 0,
        "module": 8,
        "objectives": 0,
        "toImprove": "Increase yellow",
        "stopWord": false,
        "synonyms": []
      },
      {
        "id": 2,
        "index": 1261,
        "topic": "corruption_due",
        "count": 0,
        "module": 6,
        "objectives": 0,
        "toImprove": "In spec",
        "stopWord": false,
        "synonyms": []
      },
      {
        "id": 3,
        "index": 3128,
        "topic": "group_investigation",
        "count": 0,
        "module": 6,
        "objectives": 0,
        "toImprove": "In spec",
        "stopWord": false,
        "synonyms": []
      },
      {
        "id": 4,
        "index": 3104,
        "topic": "government_official",
        "count": 0,
        "module": 5,
        "objectives": 0,
        "toImprove": "In spec",
        "stopWord": false,
        "synonyms": []
      },
      {
        "id": 5,
        "index": 5490,
        "topic": "red_flag",
        "count": 1,
        "module": 5,
        "objectives": 0,
        "toImprove": "In spec",
        "stopWord": false,
        "synonyms": []
      },
      {
        "id": 6,
        "index": 5516,
        "topic": "regional_compliance",
        "count": 0,
        "module": 5,
        "objectives": 0,
        "toImprove": "In spec",
        "stopWord": false,
        "synonyms": []
      },
      {
        "id": 7,
        "index": 5886,
        "topic": "risk_manager",
        "count": 0,
        "module": 5,
        "objectives": 0,
        "toImprove": "In spec",
        "stopWord": false,
        "synonyms": []
      },
      {
        "id": 8,
        "index": 1761,
        "topic": "disciplinary_action",
        "count": 1,
        "module": 4,
        "objectives": 0,
        "toImprove": "In spec",
        "stopWord": false,
        "synonyms": []
      },
      {
        "id": 9,
        "index": 2885,
        "topic": "fraudulent_activity",
        "count": 0,
        "module": 4,
        "objectives": 0,
        "toImprove": "In spec",
        "stopWord": false,
        "synonyms": []
      },
      {
        "id": 10,
        "index": 4108,
        "topic": "loan_application",
        "count": 0,
        "module": 4,
        "objectives": 0,
        "toImprove": "In spec",
        "stopWord": false,
        "synonyms": []
      }
    ],
    "panel2": [
      {
        "id": 1,
        "index": 1089,
        "topic": "considered_fraudulent",
        "count": 0,
        "module": 8,
        "objectives": 0,
        "toImprove": "Increase red",
        "stopWord": false,
        "synonyms": []
      },
      {
        "id": 2,
        "index": 1261,
        "topic": "corruption_due",
        "count": 0,
        "module": 6,
        "objectives": 1,
        "toImprove": "Increase yellow",
        "stopWord": false,
        "synonyms": []
      },
      {
        "id": 3,
        "index": 3128,
        "topic": "group_investigation",
        "count": 0,
        "module": 6,
        "objectives": 4,
        "toImprove": "Increase yellow",
        "stopWord": false,
        "synonyms": []
      },
      {
        "id": 4,
        "index": 3104,
        "topic": "government_official",
        "count": 0,
        "module": 5,
        "objectives": 0,
        "toImprove": "Increase yellow",
        "stopWord": false,
        "synonyms": []
      },
      {
        "id": 5,
        "index": 5490,
        "topic": "red_flag",
        "count": 1,
        "module": 5,
        "objectives": 0,
        "toImprove": "Increase yellow",
        "stopWord": false,
        "synonyms": []
      },
      {
        "id": 6,
        "index": 5516,
        "topic": "regional_compliance",
        "count": 0,
        "module": 5,
        "objectives": 0,
        "toImprove": "Increase yellow",
        "stopWord": false,
        "synonyms": []
      },
      {
        "id": 7,
        "index": 5886,
        "topic": "risk_manager",
        "count": 0,
        "module": 5,
        "objectives": 0,
        "toImprove": "Increase yellow",
        "stopWord": false,
        "synonyms": []
      },
      {
        "id": 8,
        "index": 1761,
        "topic": "disciplinary_action",
        "count": 0,
        "module": 4,
        "objectives": 1,
        "toImprove": "Increase yellow",
        "stopWord": false,
        "synonyms": []
      },
      {
        "id": 9,
        "index": 2885,
        "topic": "fraudulent_activity",
        "count": 0,
        "module": 4,
        "objectives": 1,
        "toImprove": "Increase yellow",
        "stopWord": false,
        "synonyms": []
      },
      {
        "id": 10,
        "index": 4108,
        "topic": "loan_application",
        "count": 0,
        "module": 4,
        "objectives": 0,
        "toImprove": "Increase yellow",
        "stopWord": false,
        "synonyms": []
      }
    ],
    "panel3": [
      {
        "id": 1,
        "index": 1089,
        "topic": "considered_fraudulent",
        "count": 0,
        "module": 8,
        "objectives": 0,
        "toImprove": "Increase red",
        "stopWord": false,
        "synonyms": []
      },
      {
        "id": 2,
        "index": 1261,
        "topic": "corruption_due",
        "count": 0,
        "module": 6,
        "objectives": 1,
        "toImprove": "Increase red",
        "stopWord": false,
        "synonyms": []
      },
      {
        "id": 3,
        "index": 3128,
        "topic": "group_investigation",
        "count": 0,
        "module": 6,
        "objectives": 4,
        "toImprove": "Increase red",
        "stopWord": false,
        "synonyms": []
      },
      {
        "id": 4,
        "index": 3104,
        "topic": "government_official",
        "count": 0,
        "module": 5,
        "objectives": 0,
        "toImprove": "Increase red",
        "stopWord": false,
        "synonyms": []
      },
      {
        "id": 5,
        "index": 5490,
        "topic": "red_flag",
        "count": 3,
        "module": 5,
        "objectives": 0,
        "toImprove": "In spec",
        "stopWord": false,
        "synonyms": []
      },
      {
        "id": 6,
        "index": 5516,
        "topic": "regional_compliance",
        "count": 0,
        "module": 5,
        "objectives": 0,
        "toImprove": "Increase red",
        "stopWord": false,
        "synonyms": []
      },
      {
        "id": 7,
        "index": 5886,
        "topic": "risk_manager",
        "count": 0,
        "module": 5,
        "objectives": 0,
        "toImprove": "Increase red",
        "stopWord": false,
        "synonyms": []
      },
      {
        "id": 8,
        "index": 1761,
        "topic": "disciplinary_action",
        "count": 0,
        "module": 4,
        "objectives": 1,
        "toImprove": "Increase red",
        "stopWord": false,
        "synonyms": []
      },
      {
        "id": 9,
        "index": 2885,
        "topic": "fraudulent_activity",
        "count": 1,
        "module": 4,
        "objectives": 1,
        "toImprove": "Increase yellow",
        "stopWord": false,
        "synonyms": []
      },
      {
        "id": 10,
        "index": 4108,
        "topic": "loan_application",
        "count": 1,
        "module": 4,
        "objectives": 0,
        "toImprove": "Increase yellow",
        "stopWord": false,
        "synonyms": []
      }
    ],
    "panel4": [
      {
        "id": 1,
        "index": 1089,
        "topic": "considered_fraudulent",
        "count": 0,
        "module": 8,
        "objectives": 0,
        "toImprove": "Increase red",
        "stopWord": false,
        "synonyms": []
      },
      {
        "id": 2,
        "index": 1261,
        "topic": "corruption_due",
        "count": 0,
        "module": 6,
        "objectives": 1,
        "toImprove": "Increase red",
        "stopWord": false,
        "synonyms": []
      },
      {
        "id": 3,
        "index": 3128,
        "topic": "group_investigation",
        "count": 1,
        "module": 6,
        "objectives": 4,
        "toImprove": "Increase yellow",
        "stopWord": false,
        "synonyms": []
      },
      {
        "id": 4,
        "index": 3104,
        "topic": "government_official",
        "count": 0,
        "module": 5,
        "objectives": 0,
        "toImprove": "Increase red",
        "stopWord": false,
        "synonyms": []
      },
      {
        "id": 5,
        "index": 5490,
        "topic": "red_flag",
        "count": 3,
        "module": 5,
        "objectives": 0,
        "toImprove": "In spec",
        "stopWord": false,
        "synonyms": []
      },
      {
        "id": 6,
        "index": 5516,
        "topic": "regional_compliance",
        "count": 0,
        "module": 5,
        "objectives": 0,
        "toImprove": "Increase red",
        "stopWord": false,
        "synonyms": []
      },
      {
        "id": 7,
        "index": 5886,
        "topic": "risk_manager",
        "count": 0,
        "module": 5,
        "objectives": 0,
        "toImprove": "Increase red",
        "stopWord": false,
        "synonyms": []
      },
      {
        "id": 8,
        "index": 1761,
        "topic": "disciplinary_action",
        "count": 3,
        "module": 4,
        "objectives": 1,
        "toImprove": "In spec",
        "stopWord": false,
        "synonyms": []
      },
      {
        "id": 9,
        "index": 2885,
        "topic": "fraudulent_activity",
        "count": 0,
        "module": 4,
        "objectives": 1,
        "toImprove": "Increase yellow",
        "stopWord": false,
        "synonyms": []
      },
      {
        "id": 10,
        "index": 4108,
        "topic": "loan_application",
        "count": 0,
        "module": 4,
        "objectives": 0,
        "toImprove": "Increase yellow",
        "stopWord": false,
        "synonyms": []
      }
    ],
    "panel5": [
      {
        "id": 1,
        "index": 1089,
        "topic": "considered_fraudulent",
        "count": 0,
        "module": 8,
        "objectives": 0,
        "toImprove": "Increase yellow",
        "stopWord": false,
        "synonyms": []
      },
      {
        "id": 2,
        "index": 1261,
        "topic": "corruption_due",
        "count": 0,
        "module": 6,
        "objectives": 1,
        "toImprove": "In spec",
        "stopWord": false,
        "synonyms": []
      },
      {
        "id": 3,
        "index": 3128,
        "topic": "group_investigation",
        "count": 3,
        "module": 6,
        "objectives": 4,
        "toImprove": "Decrease yellow",
        "stopWord": false,
        "synonyms": []
      },
      {
        "id": 4,
        "index": 3104,
        "topic": "government_official",
        "count": 0,
        "module": 5,
        "objectives": 0,
        "toImprove": "In spec",
        "stopWord": false,
        "synonyms": []
      },
      {
        "id": 5,
        "index": 5490,
        "topic": "red_flag",
        "count": 10,
        "module": 5,
        "objectives": 0,
        "toImprove": "Decrease yellow",
        "stopWord": false,
        "synonyms": []
      },
      {
        "id": 6,
        "index": 5516,
        "topic": "regional_compliance",
        "count": 2,
        "module": 5,
        "objectives": 0,
        "toImprove": "In spec",
        "stopWord": false,
        "synonyms": []
      },
      {
        "id": 7,
        "index": 5886,
        "topic": "risk_manager",
        "count": 2,
        "module": 5,
        "objectives": 0,
        "toImprove": "In spec",
        "stopWord": false,
        "synonyms": []
      },
      {
        "id": 8,
        "index": 1761,
        "topic": "disciplinary_action",
        "count": 0,
        "module": 4,
        "objectives": 1,
        "toImprove": "In spec",
        "stopWord": false,
        "synonyms": []
      },
      {
        "id": 9,
        "index": 2885,
        "topic": "fraudulent_activity",
        "count": 0,
        "module": 4,
        "objectives": 1,
        "toImprove": "In spec",
        "stopWord": false,
        "synonyms": []
      },
      {
        "id": 10,
        "index": 4108,
        "topic": "loan_application",
        "count": 0,
        "module": 4,
        "objectives": 0,
        "toImprove": "In spec",
        "stopWord": false,
        "synonyms": []
      }
    ],
    "panel6": [
      {
        "id": 1,
        "index": 1089,
        "topic": "considered_fraudulent",
        "count": 0,
        "module": 8,
        "objectives": 0,
        "toImprove": "Increase red",
        "stopWord": false,
        "synonyms": []
      },
      {
        "id": 2,
        "index": 1261,
        "topic": "corruption_due",
        "count": 0,
        "module": 6,
        "objectives": 1,
        "toImprove": "Increase red",
        "stopWord": false,
        "synonyms": []
      },
      {
        "id": 3,
        "index": 3128,
        "topic": "group_investigation",
        "count": 1,
        "module": 6,
        "objectives": 4,
        "toImprove": "Increase yellow",
        "stopWord": false,
        "synonyms": []
      },
      {
        "id": 4,
        "index": 3104,
        "topic": "government_official",
        "count": 0,
        "module": 5,
        "objectives": 0,
        "toImprove": "Increase red",
        "stopWord": false,
        "synonyms": []
      },
      {
        "id": 5,
        "index": 5490,
        "topic": "red_flag",
        "count": 0,
        "module": 5,
        "objectives": 0,
        "toImprove": "Increase red",
        "stopWord": false,
        "synonyms": []
      },
      {
        "id": 6,
        "index": 5516,
        "topic": "regional_compliance",
        "count": 1,
        "module": 5,
        "objectives": 0,
        "toImprove": "Increase yellow",
        "stopWord": false,
        "synonyms": []
      },
      {
        "id": 7,
        "index": 5886,
        "topic": "risk_manager",
        "count": 0,
        "module": 5,
        "objectives": 0,
        "toImprove": "Increase red",
        "stopWord": false,
        "synonyms": []
      },
      {
        "id": 8,
        "index": 1761,
        "topic": "disciplinary_action",
        "count": 1,
        "module": 4,
        "objectives": 1,
        "toImprove": "Increase yellow",
        "stopWord": false,
        "synonyms": []
      },
      {
        "id": 9,
        "index": 2885,
        "topic": "fraudulent_activity",
        "count": 0,
        "module": 4,
        "objectives": 1,
        "toImprove": "Increase yellow",
        "stopWord": false,
        "synonyms": []
      },
      {
        "id": 10,
        "index": 4108,
        "topic": "loan_application",
        "count": 0,
        "module": 4,
        "objectives": 0,
        "toImprove": "Increase yellow",
        "stopWord": false,
        "synonyms": []
      }
    ],
    "panel7": [
      {
        "id": 1,
        "index": 1089,
        "topic": "considered_fraudulent",
        "count": 0,
        "module": 8,
        "objectives": 0,
        "toImprove": "Increase red",
        "stopWord": false,
        "synonyms": []
      },
      {
        "id": 2,
        "index": 1261,
        "topic": "corruption_due",
        "count": 0,
        "module": 6,
        "objectives": 1,
        "toImprove": "Increase red",
        "stopWord": false,
        "synonyms": []
      },
      {
        "id": 3,
        "index": 3128,
        "topic": "group_investigation",
        "count": 1,
        "module": 6,
        "objectives": 2,
        "toImprove": "Increase yellow",
        "stopWord": false,
        "synonyms": []
      },
      {
        "id": 4,
        "index": 3104,
        "topic": "government_official",
        "count": 2,
        "module": 5,
        "objectives": 0,
        "toImprove": "In spec",
        "stopWord": false,
        "synonyms": []
      },
      {
        "id": 5,
        "index": 5490,
        "topic": "red_flag",
        "count": 3,
        "module": 5,
        "objectives": 0,
        "toImprove": "In spec",
        "stopWord": false,
        "synonyms": []
      },
      {
        "id": 6,
        "index": 5516,
        "topic": "regional_compliance",
        "count": 0,
        "module": 5,
        "objectives": 0,
        "toImprove": "Increase red",
        "stopWord": false,
        "synonyms": []
      },
      {
        "id": 7,
        "index": 5886,
        "topic": "risk_manager",
        "count": 0,
        "module": 5,
        "objectives": 0,
        "toImprove": "Increase red",
        "stopWord": false,
        "synonyms": []
      },
      {
        "id": 8,
        "index": 1761,
        "topic": "disciplinary_action",
        "count": 0,
        "module": 4,
        "objectives": 1,
        "toImprove": "Increase yellow",
        "stopWord": false,
        "synonyms": []
      },
      {
        "id": 9,
        "index": 2885,
        "topic": "fraudulent_activity",
        "count": 0,
        "module": 4,
        "objectives": 0,
        "toImprove": "Increase yellow",
        "stopWord": false,
        "synonyms": []
      },
      {
        "id": 10,
        "index": 4108,
        "topic": "loan_application",
        "count": 0,
        "module": 4,
        "objectives": 0,
        "toImprove": "Increase yellow",
        "stopWord": false,
        "synonyms": []
      }
    ],
    "panel8": [
      {
        "id": 1,
        "index": 1089,
        "topic": "considered_fraudulent",
        "count": 0,
        "module": 8,
        "objectives": 0,
        "toImprove": "Increase yellow",
        "stopWord": false,
        "synonyms": []
      },
      {
        "id": 2,
        "index": 1261,
        "topic": "corruption_due",
        "count": 0,
        "module": 6,
        "objectives": 1,
        "toImprove": "In spec",
        "stopWord": false,
        "synonyms": []
      },
      {
        "id": 3,
        "index": 3128,
        "topic": "group_investigation",
        "count": 1,
        "module": 6,
        "objectives": 2,
        "toImprove": "In spec",
        "stopWord": false,
        "synonyms": []
      },
      {
        "id": 4,
        "index": 3104,
        "topic": "government_official",
        "count": 0,
        "module": 5,
        "objectives": 0,
        "toImprove": "In spec",
        "stopWord": false,
        "synonyms": []
      },
      {
        "id": 5,
        "index": 5490,
        "topic": "red_flag",
        "count": 4,
        "module": 5,
        "objectives": 0,
        "toImprove": "Decrease yellow",
        "stopWord": false,
        "synonyms": []
      },
      {
        "id": 6,
        "index": 5516,
        "topic": "regional_compliance",
        "count": 0,
        "module": 5,
        "objectives": 0,
        "toImprove": "In spec",
        "stopWord": false,
        "synonyms": []
      },
      {
        "id": 7,
        "index": 5886,
        "topic": "risk_manager",
        "count": 0,
        "module": 5,
        "objectives": 0,
        "toImprove": "In spec",
        "stopWord": false,
        "synonyms": []
      },
      {
        "id": 8,
        "index": 1761,
        "topic": "disciplinary_action",
        "count": 0,
        "module": 4,
        "objectives": 1,
        "toImprove": "In spec",
        "stopWord": false,
        "synonyms": []
      },
      {
        "id": 9,
        "index": 2885,
        "topic": "fraudulent_activity",
        "count": 1,
        "module": 4,
        "objectives": 0,
        "toImprove": "In spec",
        "stopWord": false,
        "synonyms": []
      },
      {
        "id": 10,
        "index": 4108,
        "topic": "loan_application",
        "count": 0,
        "module": 4,
        "objectives": 0,
        "toImprove": "In spec",
        "stopWord": false,
        "synonyms": []
      }
    ]
  },
  "userInputs": {
    "mark_as_stopword": [],
    "add_syn": [],
    "delete_syn": [],
    "unmark_as_stopword": []
  },
  "update": true
}