{
  "title": "Course",
  "customStopWords": [
    "next", "continue", "question", "start", "assessment", "answer", "submit"
  ],
  "nltkStopWords": [
    "i", "me", "my", "myself", "we", "our", "ours", "ourselves", "you", "you're", "you've", "you'll", "you'd", "your", "yours", "yourself", "yourselves", "he", "him", "his", "himself", "she", "she's", "her", "hers", "herself", "it", "it's", "its", "itself", "they", "them", "their", "theirs", "themselves", "what", "which", "who", "whom", "this", "that", "that'll", "these", "those", "am", "is", "are", "was", "were", "be", "been", "being", "have", "has", "had", "having", "do", "does", "did", "doing", "a", "an", "the", "and", "but", "if", "or", "because", "as", "until", "while", "of", "at", "by", "for", "with", "about", "against", "between", "into", "through", "during", "before", "after", "above", "below", "to", "from", "up", "down", "in", "out", "on", "off", "over", "under", "again", "further", "then", "once", "here", "there", "when", "where", "why", "how", "all", "any", "both", "each", "few", "more", "most", "other", "some", "such", "no", "nor", "not", "only", "own", "same", "so", "than", "too", "very", "s", "t", "can", "will", "just", "don", "don't", "should", "should've", "now", "d", "ll", "m", "o", "re", "ve", "y", "ain", "aren", "aren't", "couldn", "couldn't", "didn", "didn't", "doesn", "doesn't", "hadn", "hadn't", "hasn", "hasn't", "haven", "haven't", "isn", "isn't", "ma", "mightn", "mightn't", "mustn", "mustn't", "needn", "needn't", "shan", "shan't", "shouldn", "shouldn't", "wasn", "wasn't", "weren", "weren't", "won", "won't", "wouldn", "wouldn't"
  ],
  "modules": [
    {
      "id": 1,
      "panelId": "panel1",
      "coverage": 80,
      "name": "Module 1",
      "segments": [
        {"id": 1, "name": "What is the impact of bribery, corruption and fraud?", "objectiveIds": [1]}
      ]
    },
    {
      "id": 2,
      "panelId": "panel2",
      "coverage": 30,
      "name": "Module 2",
      "segments": [
        {"id": 1, "name": "What is fraud?", "objectiveIds": [2]}
      ]
    },
    {
      "id": 3,
      "panelId": "panel3",
      "coverage": 60,
      "name": "Module 3",
      "segments": [
        {"id": 1, "name": "How do I detect and prevent fraud?", "objectiveIds": [3]}
      ]
    },
    {
      "id": 4,
      "panelId": "panel4",
      "coverage": 70,
      "name": "Module 4",
      "segments": [
        {"id": 1, "name": "What is bribery and corruption?", "objectiveIds": [4]}
      ]
    },
    {
      "id": 5,
      "panelId": "panel5",
      "coverage": 70,
      "name": "Module 5",
      "segments": [
        {"id": 1, "name": "How can I prevent bribery and corruption?", "objectiveIds": [4]}
      ]
    },
    {
      "id": 6,
      "panelId": "panel6",
      "coverage": 70,
      "name": "Module 6",
      "segments": [
        {"id": 1, "name": "How do I detect and escalate bribery and corruption?", "objectiveIds": [4]}
      ]
    },
    {
      "id": 7,
      "panelId": "panel7",
      "coverage": 70,
      "name": "Module 7",
      "segments": [
        {"id": 1, "name": "How do I escalate and manage fraud?", "objectiveIds": [4]}
      ]
    }
  ]
}
