{
  "heading": "Learning Objectives",
  "sections": [
    {
      "id": 1,
      "name": "Objective 1",
      "objectives": ["Understand why people may commit fraud, bribery or corruption and the impacts to the organisation. "],
      "regulations": [1, 2]

    },
    {
      "id": 2,
      "name": "Objective 2",
      "objectives": ["Define and recognise the various types of fraud."],
      "regulations": [1, 2]
    },
    {
      "id": 3,
      "name": "Objective 3",
      "objectives": ["Identify behaviours and situations that may indicate a high risk of fraud."],
      "regulations": [1, 2]
    },
    {
      "id": 4,
      "name": "Objective 4",
      "objectives": ["Outline the actions you need to take if you suspect someone is committing fraud."],
      "regulations": [1, 2]
    },
    {
      "id": 5,
      "name": "Objective 5",
      "objectives": ["Define bribery and corruption"],
      "regulations": [1]
    },
    {
      "id": 6,
      "name": "Objective 6",
      "objectives": ["Identify behaviours and situations that may indicate an increased risk of bribery and corruption. "],
      "regulations": [1]
    },
    {
      "id": 7,
      "name": "Objective 7",
      "objectives": ["Outline the actions you need to take if you suspect someone is committing fraud."],
      "regulations": [1]
    }
  ]
}
