{
  "heading": "Regulations",
  "sections": [
    {
      "id": 1,
      "name": "Regulation 1",
      "document": "Fraud Policy Version 7.0 Released Oct 2017 (PDF)",
      "reference": ["Page 2: Roles and Responsibilities"]
    },
    {
      "id": 2,
      "name": "Regulation 2",
      "document": "Anti-Bribery and Anti-Corruption Policy Version 5 Released July 2017 (PDF)",
      "reference": ["Page 1: Statement of Policy", "Page 2 Roles and Responsibilities"]
    }
  ]
}
